We are creating TAE events.....
#include "/afs/cern.ch/lhcb/software/releases/LHCB/LHCB_v26r2/DAQ/MDF/options/CreateMEP.opts"
ApplicationMgr.OutStream  = { "LHCb::MEPWriter/Writer_0" };
ApplicationMgr.EvtMax   = 2002;
StoreExplorer.PrintFreq = 0.01;
Writer_0.Compress       = 0;
Writer_0.ChecksumType   = 0;
Writer_0.PackingFactor  = 11;
Writer_0.Connection     = "file://taeData_0.dat";
Writer_0.MakeTAE        = true;
JobOptionsSvc        INFO
//GP:================================================================================
//GP: include "/tmp/CreateMEP.opts"                                           (0,0)
//GP: include "/afs/cern.ch/lhcb/software/releases/LHCB/LHCB_v26r2/DAQ/MDF/options/CreateMEP.opts" (1,10)
ApplicationMgr.Dlls =  [ "MDF" ] ;                                      //GP: (1,1)
ApplicationMgr.SvcOptMapping +=  [ "Gaudi::MultiFileCatalog/FileCatalog" , "Gaudi::IODataManager/IODataManager" ] ;//GP: (1,1)
ApplicationMgr.TopAlg =  [ "LHCb::RawEventTestCreator/RawEventGen" , "StoreExplorerAlg" ] ;//GP: (1,1)
ApplicationMgr.EvtMax = 2000;                                           //GP: (1,1)
ApplicationMgr.EvtSel = "NONE";                                         //GP: (1,1)
StoreExplorerAlg.Load = 1;                                              //GP: (1,1)
StoreExplorerAlg.PrintFreq = 0.01;                                      //GP: (1,1)
EventDataSvc.ForceLeaves = 1;                                           //GP: (1,1)
EventPersistencySvc.CnvServices +=  [ "LHCb::RawDataCnvSvc" ] ;         //GP: (1,1)
FileCatalog.Catalogs =  [ "xmlcatalog_file:Cnew.xml" ] ;                //GP: (1,1)
ApplicationMgr.OutStream =  [ "LHCb::MEPWriter/Writer_0" , "LHCb::MEPWriter/Writer_1" ] ;//GP: (1,1)
Writer_0.Compress = 0;                                                  //GP: (1,1)
Writer_0.ChecksumType = 0;                                              //GP: (1,1)
Writer_0.PackingFactor = 10;                                            //GP: (1,1)
Writer_0.Connection = "file://mepData_0.dat";                           //GP: (1,1)
Writer_1.Compress = 0;                                                  //GP: (1,1)
Writer_1.ChecksumType = 0;                                              //GP: (1,1)
Writer_1.PackingFactor = 10;                                            //GP: (1,1)
Writer_1.Connection = "file://mepData_1.dat";                           //GP: (1,1)
//GP: end  "/afs/cern.ch/lhcb/software/releases/LHCB/LHCB_v26r2/DAQ/MDF/options/CreateMEP.opts" (22,1)
ApplicationMgr.OutStream =  [ "LHCb::MEPWriter/Writer_0" ] ;            //GP: (1,10)
ApplicationMgr.EvtMax = 2002;                                           //GP: (1,10)
StoreExplorer.PrintFreq = 0.01;                                         //GP: (1,10)
Writer_0.Compress = 0;                                                  //GP: (1,10)
Writer_0.ChecksumType = 0;                                              //GP: (1,10)
Writer_0.PackingFactor = 11;                                            //GP: (1,10)
Writer_0.Connection = "file://taeData_0.dat";                           //GP: (1,10)
Writer_0.MakeTAE = 1;                                                   //GP: (1,10)
//GP: end  "/tmp/CreateMEP.opts"                                              (10,1)
//GP:================================================================================

JobOptionsSvc        INFO Job options successfully read in from /tmp/CreateMEP.opts
ApplicationMgr    SUCCESS
====================================================================================================================================
                                                   Welcome to ApplicationMgr $Revision: 1.3 $
                                          running on lxplus213.cern.ch on Thu Apr  2 09:55:21 2009
====================================================================================================================================
ApplicationMgr       INFO Successfully loaded modules : MDF
ApplicationMgr       INFO Application Manager Configured successfully
EventPersistenc...   INFO  'CnvServices':[ 'LHCb::RawDataCnvSvc' ]
Writer_0             INFO Initialize MDFWriter
Writer_0             INFO Received event request connection.
EventLoopMgr      WARNING Unable to locate service "EventSelector"
EventLoopMgr      WARNING No events will be processed from external input.
HistogramPersis...   INFO  'CnvServices':[ 'HbookHistSvc' , 'RootHistSvc' ]
HistogramPersis...WARNING Histograms saving not required.
ApplicationMgr       INFO Application Manager Initialized successfully
ApplicationMgr       INFO Application Manager Started successfully
StoreExplorerAlg     INFO ========= /Event[0x8c8d30@EventDataSvc]:
StoreExplorerAlg     INFO +--> /Event [No Address]  DataObject
StoreExplorerAlg     INFO   +--> /DAQ [No Address]  DataObject
StoreExplorerAlg     INFO     +--> /RawEvent [No Address]  LHCb::RawEvent
StoreExplorerAlg     INFO ========= /Event[0x8d8820@EventDataSvc]:
StoreExplorerAlg     INFO +--> /Event [No Address]  DataObject
StoreExplorerAlg     INFO   +--> /DAQ [No Address]  DataObject
StoreExplorerAlg     INFO     +--> /RawEvent [No Address]  LHCb::RawEvent
StoreExplorerAlg     INFO ========= /Event[0x8d8190@EventDataSvc]:
StoreExplorerAlg     INFO +--> /Event [No Address]  DataObject
StoreExplorerAlg     INFO   +--> /DAQ [No Address]  DataObject
StoreExplorerAlg     INFO     +--> /RawEvent [No Address]  LHCb::RawEvent
StoreExplorerAlg     INFO ========= /Event[0x8d6280@EventDataSvc]:
StoreExplorerAlg     INFO +--> /Event [No Address]  DataObject
StoreExplorerAlg     INFO   +--> /DAQ [No Address]  DataObject
StoreExplorerAlg     INFO     +--> /RawEvent [No Address]  LHCb::RawEvent
StoreExplorerAlg     INFO ========= /Event[0x8d1f20@EventDataSvc]:
StoreExplorerAlg     INFO +--> /Event [No Address]  DataObject
StoreExplorerAlg     INFO   +--> /DAQ [No Address]  DataObject
StoreExplorerAlg     INFO     +--> /RawEvent [No Address]  LHCb::RawEvent
StoreExplorerAlg     INFO ========= /Event[0x9165f0@EventDataSvc]:
StoreExplorerAlg     INFO +--> /Event [No Address]  DataObject
StoreExplorerAlg     INFO   +--> /DAQ [No Address]  DataObject
StoreExplorerAlg     INFO     +--> /RawEvent [No Address]  LHCb::RawEvent
StoreExplorerAlg     INFO ========= /Event[0x9076b0@EventDataSvc]:
StoreExplorerAlg     INFO +--> /Event [No Address]  DataObject
StoreExplorerAlg     INFO   +--> /DAQ [No Address]  DataObject
StoreExplorerAlg     INFO     +--> /RawEvent [No Address]  LHCb::RawEvent
StoreExplorerAlg     INFO ========= /Event[0x90f130@EventDataSvc]:
StoreExplorerAlg     INFO +--> /Event [No Address]  DataObject
StoreExplorerAlg     INFO   +--> /DAQ [No Address]  DataObject
StoreExplorerAlg     INFO     +--> /RawEvent [No Address]  LHCb::RawEvent
StoreExplorerAlg     INFO ========= /Event[0x8d3f50@EventDataSvc]:
StoreExplorerAlg     INFO +--> /Event [No Address]  DataObject
StoreExplorerAlg     INFO   +--> /DAQ [No Address]  DataObject
StoreExplorerAlg     INFO     +--> /RawEvent [No Address]  LHCb::RawEvent
StoreExplorerAlg     INFO ========= /Event[0x90b100@EventDataSvc]:
StoreExplorerAlg     INFO +--> /Event [No Address]  DataObject
StoreExplorerAlg     INFO   +--> /DAQ [No Address]  DataObject
StoreExplorerAlg     INFO     +--> /RawEvent [No Address]  LHCb::RawEvent
StoreExplorerAlg     INFO ========= /Event[0x8d7b60@EventDataSvc]:
StoreExplorerAlg     INFO +--> /Event [No Address]  DataObject
StoreExplorerAlg     INFO   +--> /DAQ [No Address]  DataObject
StoreExplorerAlg     INFO     +--> /RawEvent [No Address]  LHCb::RawEvent
StoreExplorerAlg     INFO ========= /Event[0x934ef0@EventDataSvc]:
StoreExplorerAlg     INFO +--> /Event [No Address]  DataObject
StoreExplorerAlg     INFO   +--> /DAQ [No Address]  DataObject
StoreExplorerAlg     INFO     +--> /RawEvent [No Address]  LHCb::RawEvent
StoreExplorerAlg     INFO ========= /Event[0x90f010@EventDataSvc]:
StoreExplorerAlg     INFO +--> /Event [No Address]  DataObject
StoreExplorerAlg     INFO   +--> /DAQ [No Address]  DataObject
StoreExplorerAlg     INFO     +--> /RawEvent [No Address]  LHCb::RawEvent
StoreExplorerAlg     INFO ========= /Event[0x8d6080@EventDataSvc]:
StoreExplorerAlg     INFO +--> /Event [No Address]  DataObject
StoreExplorerAlg     INFO   +--> /DAQ [No Address]  DataObject
StoreExplorerAlg     INFO     +--> /RawEvent [No Address]  LHCb::RawEvent
StoreExplorerAlg     INFO ========= /Event[0x911d30@EventDataSvc]:
StoreExplorerAlg     INFO +--> /Event [No Address]  DataObject
StoreExplorerAlg     INFO   +--> /DAQ [No Address]  DataObject
StoreExplorerAlg     INFO     +--> /RawEvent [No Address]  LHCb::RawEvent
StoreExplorerAlg     INFO ========= /Event[0x902b30@EventDataSvc]:
StoreExplorerAlg     INFO +--> /Event [No Address]  DataObject
StoreExplorerAlg     INFO   +--> /DAQ [No Address]  DataObject
StoreExplorerAlg     INFO     +--> /RawEvent [No Address]  LHCb::RawEvent
StoreExplorerAlg     INFO ========= /Event[0x911e70@EventDataSvc]:
StoreExplorerAlg     INFO +--> /Event [No Address]  DataObject
StoreExplorerAlg     INFO   +--> /DAQ [No Address]  DataObject
StoreExplorerAlg     INFO     +--> /RawEvent [No Address]  LHCb::RawEvent
StoreExplorerAlg     INFO ========= /Event[0x9046d0@EventDataSvc]:
StoreExplorerAlg     INFO +--> /Event [No Address]  DataObject
StoreExplorerAlg     INFO   +--> /DAQ [No Address]  DataObject
StoreExplorerAlg     INFO     +--> /RawEvent [No Address]  LHCb::RawEvent
StoreExplorerAlg     INFO ========= /Event[0x8d0840@EventDataSvc]:
StoreExplorerAlg     INFO +--> /Event [No Address]  DataObject
StoreExplorerAlg     INFO   +--> /DAQ [No Address]  DataObject
StoreExplorerAlg     INFO     +--> /RawEvent [No Address]  LHCb::RawEvent
StoreExplorerAlg     INFO ========= /Event[0x9113a0@EventDataSvc]:
StoreExplorerAlg     INFO +--> /Event [No Address]  DataObject
StoreExplorerAlg     INFO   +--> /DAQ [No Address]  DataObject
StoreExplorerAlg     INFO     +--> /RawEvent [No Address]  LHCb::RawEvent
StoreExplorerAlg     INFO ========= /Event[0x90b2c0@EventDataSvc]:
StoreExplorerAlg     INFO +--> /Event [No Address]  DataObject
StoreExplorerAlg     INFO   +--> /DAQ [No Address]  DataObject
StoreExplorerAlg     INFO     +--> /RawEvent [No Address]  LHCb::RawEvent
ApplicationMgr       INFO Application Manager Stopped successfully
Writer_0             INFO Size:       0 Output:file://taeData_0.dat MD5 sum:d41d8cd98f00b204e9800998ecf8427e
EventLoopMgr         INFO Histograms converted successfully according to request.
ApplicationMgr       INFO Application Manager Finalized successfully
ApplicationMgr       INFO Application Manager Terminated successfully
