...Child out of select:-1 errno:4 [Interrupted system call]
Chr[2]...
...stop threads after restore from file:proc.dat
... checkpoint successfully restored ...
...restoring main thread. rc=1...
...Child out of select:-1 errno:4 [Interrupted system call]
Chr[3]...
...main thread cancelled ...
...wait for Child thread to exit...
...Child ended...exit...
...All required checkpointing actions were executed successfully...

