Checkpointing_test: print level:131 flag:2 tst function:t_checkpoint [t_ch]
Chr[1]......resume after writing checkpoint file:proc.dat with 0x03526A6C bytes
...restoring main thread. rc=2...
...Child out of select:-1 errno:4 [Interrupted system call]
Chr[2]...
...main thread cancelled ...
...wait for Child thread to exit...
...Child ended...exit...
...All required checkpointing actions were executed successfully...

