+----------------------------------------------------------------------------+
|      Executing MDF           ReadROOT                                      |
+----------------------------------------------------------------------------+
ApplicationMgr       INFO Application Manager Configured successfully
{'ApplicationMgr': {'AppName': '',
                    'AuditAlgorithms': True,
                    'EvtMax': -1,
                    'ExtSvc': ['Gaudi::MultiFileCatalog/FileCatalog',
                               'Gaudi::IODataManager/IODataManager',
                               'AuditorSvc'],
                    'HistogramPersistency': 'NONE',
                    'SvcOptMapping': ['Gaudi::MultiFileCatalog/FileCatalog',
                                      'Gaudi::IODataManager/IODataManager'],
                    'TopAlg': ['LHCb::Tell1BankDump/Dump',
                               'StoreExplorerAlg/Explorer']},
 'AuditorSvc': {'Auditors': ['ChronoAuditor']},
 'ChronoStatSvc': {'OutputLevel': 4},
 'Dump': {'CheckData': False,
          'DumpData': False,
          'FullDump': False,
          'OutputLevel': 3},
 'EventDataSvc': {'EnableFaultHandler': True,
                  'ForceLeaves': True,
                  'RootCLID': 1},
 'EventPersistencySvc': {'CnvServices': ['Gaudi::RootCnvSvc/RootCnvSvc',
                                         'LHCb::RawDataCnvSvc/RawDataCnvSvc']},
 'EventSelector': {'Input': ["DATA='PFN:mdfROOT.dat' SVC='Gaudi::RootEvtSelector'"],
                   'PrintFreq': 200},
 'Explorer': {'AccessForeign': True,
              'Load': True,
              'OutputLevel': 3,
              'PrintFreq': 0.00021},
 'FileCatalog': {'Catalogs': ['xmlcatalog_file:qmTest.xml']},
 'IODataManager': {'AgeLimit': 5, 'OutputLevel': 3},
 'JobOptionSvc': {'OutputLevel': 4},
 'MessageSvc': {'OutputLevel': 3},
 'ReadAlg': {'OutputLevel': 4},
 'RootCnvSvc': {'CacheSize': 50000000, 'GlobalCompression': 'LZMA:3'}}
+-------------------> Start processing events
RootCnvSvc           INFO Setting global ROOT compression to:LZMA:3
EventPersistenc...   INFO Added successfully Conversion service:RootCnvSvc
EventSelector        INFO Stream:EventSelector.DataStreamTool_1 Def:DATA='PFN:mdfROOT.dat' SVC='Gaudi::RootEvtSelector'
HistogramPersis...WARNING Histograms saving not required.
ApplicationMgr       INFO Application Manager Initialized successfully
ApplicationMgr       INFO Application Manager Started successfully
EventSelector     SUCCESS Reading Event record 1. Record number within stream 1: 1
EventPersistenc...   INFO Added successfully Conversion service:RawDataCnvSvc
RawDataCnvSvc        INFO Opened(READ) MDF stream:58AD91C1-1FEA-DC11-A5AA-000423D950B0 ID:0x1f179440
Explorer             INFO ========= /Event[0x1ef8a530@EventDataSvc]:
Explorer             INFO +--> /Event [Address: CLID=0x1 Type=0x2]  DataObject
Explorer             INFO   +--> /DAQ [Address: CLID=0x1 Type=0x2]  DataObject
Explorer             INFO     +--> /RawEvent [Address: CLID=0x3ea Type=0xa000000]  LHCb::RawEvent
EventSelector     SUCCESS Reading Event record 201. Record number within stream 1: 201
EventSelector     SUCCESS Reading Event record 401. Record number within stream 1: 401
EventSelector     SUCCESS Reading Event record 601. Record number within stream 1: 601
EventSelector     SUCCESS Reading Event record 801. Record number within stream 1: 801
EventSelector     SUCCESS Reading Event record 1001. Record number within stream 1: 1001
EventSelector     SUCCESS Reading Event record 1201. Record number within stream 1: 1201
EventSelector     SUCCESS Reading Event record 1401. Record number within stream 1: 1401
EventSelector     SUCCESS Reading Event record 1601. Record number within stream 1: 1601
EventSelector     SUCCESS Reading Event record 1801. Record number within stream 1: 1801
EventSelector     SUCCESS Reading Event record 2001. Record number within stream 1: 2001
RawDataCnvSvc        INFO Opened(READ) MDF stream:70BBF7E9-BC1E-DE11-A8FC-000423D9A21A ID:0x1f17b300
EventSelector     SUCCESS Reading Event record 2201. Record number within stream 1: 2201
EventSelector     SUCCESS Reading Event record 2401. Record number within stream 1: 2401
EventSelector     SUCCESS Reading Event record 2601. Record number within stream 1: 2601
EventSelector     SUCCESS Reading Event record 2801. Record number within stream 1: 2801
EventSelector     SUCCESS Reading Event record 3001. Record number within stream 1: 3001
EventSelector     SUCCESS Reading Event record 3201. Record number within stream 1: 3201
EventSelector     SUCCESS Reading Event record 3401. Record number within stream 1: 3401
EventSelector     SUCCESS Reading Event record 3601. Record number within stream 1: 3601
EventSelector     SUCCESS Reading Event record 3801. Record number within stream 1: 3801
EventSelector     SUCCESS Reading Event record 4001. Record number within stream 1: 4001
IODataManager       ERROR Referring to existing dataset root:file:mdfData_2.dat by its physical name.
IODataManager       ERROR You may not be able to navigate back to the input file -- processing continues
RawDataCnvSvc        INFO Opened(READ) MDF stream:root:file:mdfData_2.dat ID:0x1f17b3b0
EventSelector     SUCCESS Reading Event record 4201. Record number within stream 1: 4201
EventSelector     SUCCESS Reading Event record 4401. Record number within stream 1: 4401
EventSelector     SUCCESS Reading Event record 4601. Record number within stream 1: 4601
Explorer             INFO ========= /Event[0x1f17a720@EventDataSvc]:
Explorer             INFO +--> /Event [Address: CLID=0x1 Type=0x2]  DataObject
Explorer             INFO   +--> /DAQ [Address: CLID=0x1 Type=0x2]  DataObject
Explorer             INFO     +--> /RawEvent [Address: CLID=0x3ea Type=0xa000000]  LHCb::RawEvent
EventSelector     SUCCESS Reading Event record 4801. Record number within stream 1: 4801
EventSelector     SUCCESS Reading Event record 5001. Record number within stream 1: 5001
EventSelector     SUCCESS Reading Event record 5201. Record number within stream 1: 5201
EventSelector     SUCCESS Reading Event record 5401. Record number within stream 1: 5401
EventSelector     SUCCESS Reading Event record 5601. Record number within stream 1: 5601
EventSelector     SUCCESS Reading Event record 5801. Record number within stream 1: 5801
EventSelector     SUCCESS Reading Event record 6001. Record number within stream 1: 6001
RawDataCnvSvc        INFO Opened(READ) MDF stream:8894EDE9-BC1E-DE11-A8FC-000423D9A21A ID:0x1f16c550
EventSelector     SUCCESS Reading Event record 6201. Record number within stream 1: 6201
EventSelector     SUCCESS Reading Event record 6401. Record number within stream 1: 6401
EventSelector     SUCCESS Reading Event record 6601. Record number within stream 1: 6601
EventSelector     SUCCESS Reading Event record 6801. Record number within stream 1: 6801
EventSelector     SUCCESS Reading Event record 7001. Record number within stream 1: 7001
EventSelector     SUCCESS Reading Event record 7201. Record number within stream 1: 7201
EventSelector     SUCCESS Reading Event record 7401. Record number within stream 1: 7401
EventSelector     SUCCESS Reading Event record 7601. Record number within stream 1: 7601
EventSelector     SUCCESS Reading Event record 7801. Record number within stream 1: 7801
EventSelector     SUCCESS Reading Event record 8001. Record number within stream 1: 8001
RawDataCnvSvc        INFO Opened(READ) MDF stream:0494F4E9-BC1E-DE11-A8FC-000423D9A21A ID:0x1f16c790
EventSelector     SUCCESS Reading Event record 8201. Record number within stream 1: 8201
EventSelector     SUCCESS Reading Event record 8401. Record number within stream 1: 8401
EventSelector     SUCCESS Reading Event record 8601. Record number within stream 1: 8601
EventSelector     SUCCESS Reading Event record 8801. Record number within stream 1: 8801
EventSelector     SUCCESS Reading Event record 9001. Record number within stream 1: 9001
EventSelector     SUCCESS Reading Event record 9201. Record number within stream 1: 9201
EventSelector     SUCCESS Reading Event record 9401. Record number within stream 1: 9401
Explorer             INFO ========= /Event[0x1f17aa50@EventDataSvc]:
Explorer             INFO +--> /Event [Address: CLID=0x1 Type=0x2]  DataObject
Explorer             INFO   +--> /DAQ [Address: CLID=0x1 Type=0x2]  DataObject
Explorer             INFO     +--> /RawEvent [Address: CLID=0x3ea Type=0xa000000]  LHCb::RawEvent
EventSelector     SUCCESS Reading Event record 9601. Record number within stream 1: 9601
EventSelector     SUCCESS Reading Event record 9801. Record number within stream 1: 9801
EventSelector     SUCCESS Reading Event record 10001. Record number within stream 1: 10001
RawDataCnvSvc        INFO Opened(READ) MDF stream:BE38F5E9-BC1E-DE11-A8FC-000423D9A21A ID:0x1f1814f0
EventSelector     SUCCESS Reading Event record 10201. Record number within stream 1: 10201
EventSelector     SUCCESS Reading Event record 10401. Record number within stream 1: 10401
EventSelector     SUCCESS Reading Event record 10601. Record number within stream 1: 10601
EventSelector     SUCCESS Reading Event record 10801. Record number within stream 1: 10801
EventSelector     SUCCESS Reading Event record 11001. Record number within stream 1: 11001
EventSelector     SUCCESS Reading Event record 11201. Record number within stream 1: 11201
EventSelector     SUCCESS Reading Event record 11401. Record number within stream 1: 11401
EventSelector     SUCCESS Reading Event record 11601. Record number within stream 1: 11601
EventSelector     SUCCESS Reading Event record 11801. Record number within stream 1: 11801
EventSelector     SUCCESS Reading Event record 12001. Record number within stream 1: 12001
IODataManager        INFO Disconnect from dataset file://mdfData_1.dat [58AD91C1-1FEA-DC11-A5AA-000423D950B0]
IODataManager       ERROR Referring to existing dataset root:file:./mdfData_6.dat by its physical name.
IODataManager       ERROR You may not be able to navigate back to the input file -- processing continues
RawDataCnvSvc        INFO Opened(READ) MDF stream:root:file:./mdfData_6.dat ID:0x1ef8a6a0
RawDataCnvSvc        INFO Removed disconnected MDF stream:58AD91C1-1FEA-DC11-A5AA-000423D950B0 ID:0x1f179440
EventSelector     SUCCESS Reading Event record 12201. Record number within stream 1: 12201
EventSelector     SUCCESS Reading Event record 12401. Record number within stream 1: 12401
EventSelector     SUCCESS Reading Event record 12601. Record number within stream 1: 12601
EventSelector     SUCCESS Reading Event record 12801. Record number within stream 1: 12801
EventSelector     SUCCESS Reading Event record 13001. Record number within stream 1: 13001
EventSelector     SUCCESS Reading Event record 13201. Record number within stream 1: 13201
EventSelector     SUCCESS Reading Event record 13401. Record number within stream 1: 13401
EventSelector     SUCCESS Reading Event record 13601. Record number within stream 1: 13601
EventSelector     SUCCESS Reading Event record 13801. Record number within stream 1: 13801
EventSelector     SUCCESS Reading Event record 14001. Record number within stream 1: 14001
IODataManager        INFO Disconnect from dataset root:file://mdfData_0.dat [70BBF7E9-BC1E-DE11-A8FC-000423D9A21A]
IODataManager       ERROR Referring to existing dataset root:./mdfData_7.dat by its physical name.
IODataManager       ERROR You may not be able to navigate back to the input file -- processing continues
RawDataCnvSvc        INFO Opened(READ) MDF stream:root:./mdfData_7.dat ID:0x1f181450
RawDataCnvSvc        INFO Removed disconnected MDF stream:70BBF7E9-BC1E-DE11-A8FC-000423D9A21A ID:0x1f17b300
EventSelector     SUCCESS Reading Event record 14201. Record number within stream 1: 14201
Explorer             INFO ========= /Event[0x1f17b500@EventDataSvc]:
Explorer             INFO +--> /Event [Address: CLID=0x1 Type=0x2]  DataObject
Explorer             INFO   +--> /DAQ [Address: CLID=0x1 Type=0x2]  DataObject
Explorer             INFO     +--> /RawEvent [Address: CLID=0x3ea Type=0xa000000]  LHCb::RawEvent
EventSelector     SUCCESS Reading Event record 14401. Record number within stream 1: 14401
EventSelector     SUCCESS Reading Event record 14601. Record number within stream 1: 14601
EventSelector     SUCCESS Reading Event record 14801. Record number within stream 1: 14801
EventSelector     SUCCESS Reading Event record 15001. Record number within stream 1: 15001
EventSelector     SUCCESS Reading Event record 15201. Record number within stream 1: 15201
EventSelector     SUCCESS Reading Event record 15401. Record number within stream 1: 15401
EventSelector     SUCCESS Reading Event record 15601. Record number within stream 1: 15601
EventSelector     SUCCESS Reading Event record 15801. Record number within stream 1: 15801
EventSelector     SUCCESS Reading Event record 16001. Record number within stream 1: 16001
IODataManager        INFO Disconnect from dataset root:file:mdfData_2.dat [root:file:mdfData_2.dat]
RawDataCnvSvc        INFO Opened(READ) MDF stream:14E2F5E9-BC1E-DE11-A8FC-000423D9A21A ID:0x1f181520
RawDataCnvSvc        INFO Removed disconnected MDF stream:root:file:mdfData_2.dat ID:0x1f17b3b0
EventSelector     SUCCESS Reading Event record 16201. Record number within stream 1: 16201
EventSelector     SUCCESS Reading Event record 16401. Record number within stream 1: 16401
EventSelector     SUCCESS Reading Event record 16601. Record number within stream 1: 16601
EventSelector     SUCCESS Reading Event record 16801. Record number within stream 1: 16801
EventSelector     SUCCESS Reading Event record 17001. Record number within stream 1: 17001
EventSelector     SUCCESS Reading Event record 17201. Record number within stream 1: 17201
EventSelector     SUCCESS Reading Event record 17401. Record number within stream 1: 17401
EventSelector     SUCCESS Reading Event record 17601. Record number within stream 1: 17601
EventSelector     SUCCESS Reading Event record 17801. Record number within stream 1: 17801
EventSelector     SUCCESS Reading Event record 18001. Record number within stream 1: 18001
IODataManager        INFO Disconnect from dataset root:mdfData_3.dat [8894EDE9-BC1E-DE11-A8FC-000423D9A21A]
RawDataCnvSvc        INFO Opened(READ) MDF stream:361FF6E9-BC1E-DE11-A8FC-000423D9A21A ID:0x1ef8a580
RawDataCnvSvc        INFO Removed disconnected MDF stream:8894EDE9-BC1E-DE11-A8FC-000423D9A21A ID:0x1f16c550
EventSelector     SUCCESS Reading Event record 18201. Record number within stream 1: 18201
EventSelector     SUCCESS Reading Event record 18401. Record number within stream 1: 18401
EventSelector     SUCCESS Reading Event record 18601. Record number within stream 1: 18601
EventSelector     SUCCESS Reading Event record 18801. Record number within stream 1: 18801
EventSelector     SUCCESS Reading Event record 19001. Record number within stream 1: 19001
Explorer             INFO ========= /Event[0x1f4810d0@EventDataSvc]:
Explorer             INFO +--> /Event [Address: CLID=0x1 Type=0x2]  DataObject
Explorer             INFO   +--> /DAQ [Address: CLID=0x1 Type=0x2]  DataObject
Explorer             INFO     +--> /RawEvent [Address: CLID=0x3ea Type=0xa000000]  LHCb::RawEvent
EventSelector     SUCCESS Reading Event record 19201. Record number within stream 1: 19201
EventSelector     SUCCESS Reading Event record 19401. Record number within stream 1: 19401
EventSelector     SUCCESS Reading Event record 19601. Record number within stream 1: 19601
EventSelector     SUCCESS Reading Event record 19801. Record number within stream 1: 19801
EventSelector     SUCCESS Reading Event record 20001. Record number within stream 1: 20001
IODataManager        INFO Disconnect from dataset root:mdfData_4.dat [0494F4E9-BC1E-DE11-A8FC-000423D9A21A]
RawDataCnvSvc        INFO Opened(READ) MDF stream:D287F6E9-BC1E-DE11-A8FC-000423D9A21A ID:0x1f17b130
RawDataCnvSvc        INFO Removed disconnected MDF stream:0494F4E9-BC1E-DE11-A8FC-000423D9A21A ID:0x1f16c790
EventSelector     SUCCESS Reading Event record 20201. Record number within stream 1: 20201
EventSelector     SUCCESS Reading Event record 20401. Record number within stream 1: 20401
EventSelector     SUCCESS Reading Event record 20601. Record number within stream 1: 20601
EventSelector     SUCCESS Reading Event record 20801. Record number within stream 1: 20801
EventSelector     SUCCESS Reading Event record 21001. Record number within stream 1: 21001
EventSelector     SUCCESS Reading Event record 21201. Record number within stream 1: 21201
EventSelector     SUCCESS Reading Event record 21401. Record number within stream 1: 21401
EventSelector     SUCCESS Reading Event record 21601. Record number within stream 1: 21601
EventSelector     SUCCESS Reading Event record 21801. Record number within stream 1: 21801
EventLoopMgr         INFO No more events in event selection
+-------------------> Finished processing events
ApplicationMgr       INFO Application Manager Stopped successfully
EventLoopMgr         INFO Histograms converted successfully according to request.
RawDataCnvSvc        INFO Closed connected MDF stream:14E2F5E9-BC1E-DE11-A8FC-000423D9A21A ID:0x1f181520
RawDataCnvSvc        INFO Closed connected MDF stream:361FF6E9-BC1E-DE11-A8FC-000423D9A21A ID:0x1ef8a580
RawDataCnvSvc        INFO Closed connected MDF stream:BE38F5E9-BC1E-DE11-A8FC-000423D9A21A ID:0x1f1814f0
RawDataCnvSvc        INFO Closed connected MDF stream:D287F6E9-BC1E-DE11-A8FC-000423D9A21A ID:0x1f17b130
RawDataCnvSvc        INFO Closed connected MDF stream:root:./mdfData_7.dat ID:0x1f181450
RawDataCnvSvc        INFO Closed connected MDF stream:root:file:./mdfData_6.dat ID:0x1ef8a6a0
RootCnvSvc           INFO Disconnected data IO:DE3FC762-EC74-E111-91F9-003048F0E7CA [mdfROOT.dat]
ToolSvc              INFO Removing all tools created by ToolSvc
*****Chrono*****     INFO ****************************************************************************************************
*****Chrono*****     INFO  The Final CPU consumption ( Chrono ) Table (ordered)
*****Chrono*****     INFO ****************************************************************************************************
Explorer:BeginRun    INFO Time User   : Tot=    0 [us]                                             #=  1
Explorer:EndRun      INFO Time User   : Tot=    0 [us]                                             #=  1
Explorer:Start       INFO Time User   : Tot=    0 [us]                                             #=  1
Explorer:Stop        INFO Time User   : Tot=    0 [us]                                             #=  1
Explorer:Finalize    INFO Time User   : Tot=    0 [us]                                             #=  1
Dump:EndRun          INFO Time User   : Tot=    0 [us]                                             #=  1
Dump:Finalize        INFO Time User   : Tot=    0 [us]                                             #=  1
Dump:BeginRun        INFO Time User   : Tot=    0 [us]                                             #=  1
Dump:Start           INFO Time User   : Tot=    0 [us]                                             #=  1
Dump:Stop            INFO Time User   : Tot=    0 [us]                                             #=  1
Dump:Initialize      INFO Time User   : Tot=    0 [us]                                             #=  1
Explorer:Initia...   INFO Time User   : Tot=    3 [ms]                                             #=  1
Explorer:Execute     INFO Time User   : Tot=  397 [ms] Ave/Min/Max=   18(+-  133)/    0/1e+03 [us] #=22000
Dump:Execute         INFO Time User   : Tot= 6.27  [s] Ave/Min/Max=  285(+-  452)/    0/4e+03 [us] #=22000
*****Chrono*****     INFO ****************************************************************************************************
ChronoStatSvc.f...   INFO  Service finalized successfully
ApplicationMgr       INFO Application Manager Finalized successfully
ApplicationMgr       INFO Application Manager Terminated successfully
